<?xml version="1.0" encoding="utf-8"?>
<!-- Generator: Adobe Illustrator 23.0.3, SVG Export Plug-In . SVG Version: 6.00 Build 0)  -->
<svg version="1.1" id="Слой_1" xmlns="http://www.w3.org/2000/svg" xmlns:xlink="http://www.w3.org/1999/xlink" x="0px" y="0px"
	 viewBox="0 0 878.16 878.86" style="enable-background:new 0 0 878.16 878.86;" xml:space="preserve">
<g>
	<path d="M137.97,580.08l10.56,20.52l-0.25,0.13c-8.62-0.85-12.75,0.15-21.36,4.58l-71.44,36.76l9.18,16.59
		c2.54,4.62,19.18,5.51,30.34,6.66l0.14,1.21l-26.16,7.37l-36.83-71.57l21.15-17.13l0.9,0.82c-5.49,9.87-14.44,23.93-12.16,28.68
		l8.1,16.98l71.45-36.76c8.74-4.49,11.83-7.21,16.14-14.71L137.97,580.08z"/>
	<path d="M113.57,521.13c-7.74-3.7-11.97-4.36-21.6-3.26l-61.14,7.02c-9.63,1.11-13.6,2.71-20.3,8.07l-0.29,0.03l-2.63-22.93
		l0.28-0.03c7.75,3.84,11.83,4.38,21.6,3.25l27.46-3.15l-6.29-54.77l-27.46,3.15c-9.62,1.11-13.62,2.57-20.3,8.07l-0.28,0.03
		L0,443.68l0.28-0.03c7.74,3.7,11.83,4.38,21.6,3.26l61.14-7.02c9.77-1.12,13.6-2.71,20.3-8.07l0.28-0.03l2.63,22.93l-0.28,0.03
		c-7.75-3.84-11.97-4.36-21.6-3.26l-30.86,3.54l6.29,54.77l30.86-3.54c9.77-1.12,13.61-2.57,20.3-8.07l0.28-0.03l2.64,22.93
		L113.57,521.13z"/>
	<path d="M123.26,328.43l-15.95,68.09l-0.28-0.07c-6.08-5.23-10.23-8.11-17.87-9.9l-62.68-14.69c-7.76-1.82-12.62-1.06-20.4,0.92
		l-0.28-0.07l14.33-61.15l23.46-0.21l0.15,1.2c-9.81,5.02-22.48,9.8-23.97,14.87l-7.79,28.89l46.87,10.99l4.1-17.48
		c1.2-5.13-6.08-11.52-10.05-16.4l0.26-1.11l28.29,6.63l-0.26,1.11c-5.01,2.63-14.26,5.29-15.46,10.42l-4.09,17.47l47.42,11.11
		l6.12-30.46c1.92-10.08-6.53-20.84-15.97-31.1l0.68-1.01L123.26,328.43z"/>
	<path d="M229.9,181.8c-25.89,21.69-57.44,17.08-77.01-6.3c-19.49-23.27-18.14-55.61,9.27-78.57c12.56-10.52,24.94-15.5,32.36-18.18
		l16.08,14.78l-0.6,1.05c-19.68-7.3-33.12-6.27-46.99,5.35c-22.39,18.75-18.33,44.9,0.24,67.07c18.48,22.06,41.99,31.73,64.82,12.61
		c14.2-11.89,19.42-26.3,9.81-37.77c-8.05-9.61-12.35-12.52-20.21-13.92l-0.18-0.22l17.8-14.91l0.18,0.21
		c0.61,8.04,2.77,12.18,9.99,20.81l7.5,8.95C250.75,150.78,247.6,166.98,229.9,181.8"/>
	<path d="M275.54,85.31c-9.03-29.11,7.28-59.22,34.21-67.57c27.07-8.4,57.69,7.16,66.72,36.26c9.03,29.12-7.5,59-34.58,67.39
		C314.97,129.75,284.57,114.43,275.54,85.31 M363.69,57.97c-8.69-28.02-28.6-45.11-53.09-37.51c-24.35,7.55-30.96,32.86-22.27,60.9
		c8.69,28.02,28.38,44.87,52.74,37.32C365.55,111.08,372.42,86.13,363.69,57.97"/>
	<path d="M427.12,49.01c3.12-30.33,29.95-51.64,58.01-48.74c28.21,2.9,50.27,29.23,47.16,59.56c-3.12,30.33-30.06,51.34-58.27,48.43
		C445.95,105.37,423.99,79.34,427.12,49.01 M518.96,58.45c3-29.19-8.61-52.73-34.12-55.36c-25.37-2.61-41.39,18.08-44.4,47.28
		c-3,29.2,8.5,52.44,33.87,55.04C499.82,108.05,515.94,87.79,518.96,58.45"/>
	<path d="M557.68,122.15c7.44-4.28,10.38-7.39,14.94-15.95l28.9-54.36c4.55-8.55,5.49-12.74,4.87-21.3l0.13-0.25
		c16.23,8.63,18.26,9.06,35.13,18.03c29.07,15.46,37.86,41.12,22,70.94c-15.86,29.82-41.93,37.26-72.51,21l-33.59-17.86
		L557.68,122.15z M620.86,40.33L574.1,128.3l17.24,8.85c27,13.87,44.95,5.02,59.54-22.42c16.52-31.08,12-51.72-11.71-64.49
		L620.86,40.33z"/>
	<path d="M725.28,260.86l0.26-0.12c8.53,0.92,12.74,0.15,21.45-4.09l55.34-26.9c8.72-4.23,11.93-7.06,16.47-14.34l0.26-0.12
		c9.71,19.98,11.22,21.78,15.76,31.13c13.2,26.84,2.95,37.36-6.52,41.97c-10.51,5.1-22.15,3.96-31.28-6.02
		c5.68,16.88-1.97,27.88-12.98,33.23c-14.99,7.29-31.24,1.88-43.38-23.1L725.28,260.86z M777.98,304.46
		c12.95-6.29,18.8-17.37,12.02-31.34l-9.59-19.73l-43.82,21.3c1.36,4.41,3.4,9.91,6.14,15.55
		C751.19,307.65,764.15,311.18,777.98,304.46 M792,270.72c6.66,13.71,20.17,12.85,30.55,7.8c13.06-6.35,16.18-17.52,9.08-32.13
		c-2.74-5.64-5.49-10.32-7.93-14.04l-40.74,19.8L792,270.72z"/>
	<path d="M775.69,428.68l-9.06-69.36l0.29-0.04c7.54,2.75,12.44,3.98,20.21,2.96l63.84-8.34c7.9-1.03,12.19-3.46,18.77-8.05
		l0.28-0.04l8.13,62.29l-21.88,8.46l-0.58-1.07c7.42-8.15,17.59-17.09,17.2-22.36l-2.89-29.79l-47.74,6.23l2.33,17.79
		c0.68,5.23,9.75,8.64,15.19,11.81l0.15,1.13l-28.82,3.76l-0.15-1.13c3.76-4.23,11.48-9.97,10.8-15.21l-2.33-17.79l-48.3,6.31
		l5.01,30.66c1.75,10.12,13.45,17.21,25.91,23.48l-0.27,1.19L775.69,428.68z"/>
	<path d="M762.67,515.81c7.57-32.9,35.5-48.26,65.21-41.44c29.57,6.8,48.02,33.39,40.01,68.25c-3.67,15.96-10.54,27.4-14.83,34
		l-21.74-2.07l-0.16-1.21c20.1-6.05,30.19-14.99,34.24-32.62c6.54-28.46-12.46-46.86-40.65-53.33
		c-28.04-6.45-52.63,0.04-59.29,29.06c-4.15,18.04,0.38,32.67,14.96,36.03c12.22,2.8,17.4,2.54,24.52-1.09l0.27,0.07l-5.2,22.62
		l-0.28-0.07c-5.34-6.05-9.56-8.04-20.52-10.56l-11.39-2.62C764.78,553.12,757.51,538.3,762.67,515.81"/>
	<path d="M737.18,591.8c4.04,7.66,7.16,10.55,15.6,15.29l53.7,30.12c8.45,4.74,12.54,5.9,21.18,5.35l0.25,0.14l-11.3,20.14
		l-0.25-0.14c-4.04-7.65-7.03-10.47-15.61-15.29l-53.69-30.12c-8.58-4.81-12.55-5.89-21.19-5.35l-0.25-0.14l11.3-20.14L737.18,591.8
		z"/>
	<path d="M764.64,712.96l-47.25-46.43c-7.56-7.55-11.99-9.36-23.57-9.46l-0.2-0.2l14.9-14.91l0.21,0.21
		c1.31,10.38,3.42,14.5,10.98,22.05l45.84,45.82c6.45,3.62,11.78,4.33,18.94,3.02l0.2,0.2l-12.18,12.19l-107.98-14.08l44.63,44.01
		c7.66,7.45,11.89,9.46,22.67,10.37l0.2,0.21l-13.9,13.9l-0.2-0.2c-1.31-10.38-3.42-14.5-10.98-22.06l-57.02-57l1.82-2.42
		L764.64,712.96z"/>
	<path d="M647.05,809.54l-27.98-60.04c-4.43-9.72-7.94-12.97-18.76-17.12l-0.12-0.26l19.18-8.74l0.12,0.26
		c-2.41,10.17-1.87,14.78,2.56,24.51l26.86,58.98c4.77,5.65,9.52,8.19,16.67,9.46l0.12,0.27L650.03,824l-96.19-51.05l26.36,56.87
		c4.56,9.66,7.82,13.03,17.6,17.65l0.12,0.26l-17.89,8.15l-0.12-0.26c2.41-10.17,1.87-14.79-2.55-24.51l-33.42-73.37l2.54-1.62
		L647.05,809.54z"/>
	<path d="M502.76,766.53c-3.54,7.89-3.89,12.13-2.42,21.7l9.38,60.81c1.48,9.58,3.09,13.51,8.84,19.97l0.05,0.28l-22.8,3.52
		l-0.04-0.28c3.53-7.89,3.92-11.99,2.42-21.7l-9.38-60.81c-1.5-9.71-3.09-13.5-8.84-19.96l-0.04-0.28l22.8-3.52L502.76,766.53z"/>
	<path d="M424.49,862.91l7.29-65.87c1.27-10.62-0.05-15.21-7.13-24.39l0.04-0.28l20.94,2.5l-0.03,0.28
		c-7.34,7.45-9.29,11.66-10.56,22.28l-7.69,64.39c1.14,7.31,3.88,11.94,9.34,16.76l-0.04,0.29l-17.12-2.05l-55.7-93.64l-7.01,62.32
		c-1.13,10.62-0.1,15.2,5.86,24.24l-0.03,0.28l-19.53-2.33l0.04-0.28c7.34-7.45,9.29-11.66,10.55-22.28l9.57-80.09l3.02-0.07
		L424.49,862.91z"/>
	<path d="M279.09,727.99c29.68,16.08,37,47.1,22.48,73.89c-14.45,26.67-45,37.32-76.43,20.3c-14.4-7.8-23.57-17.48-28.79-23.38
		l7.81-20.39l1.2,0.17c0.46,20.98,6.37,33.09,22.27,41.7c25.67,13.91,48.48,0.51,62.25-24.9c13.7-25.29,14.02-50.7-12.14-64.89
		c-16.27-8.82-31.59-8.37-38.71,4.78c-5.97,11.02-7.09,16.08-5.51,23.91l-0.13,0.25l-20.41-11.05l0.14-0.26
		c7.25-3.52,10.3-7.05,15.66-16.95l5.57-10.27C242.58,720.03,258.81,716.99,279.09,727.99"/>
</g>
</svg>
