<?xml version="1.0" encoding="utf-8"?>
<!-- Generator: Adobe Illustrator 23.0.3, SVG Export Plug-In . SVG Version: 6.00 Build 0)  -->
<svg version="1.1" id="Слой_1" xmlns="http://www.w3.org/2000/svg" xmlns:xlink="http://www.w3.org/1999/xlink" x="0px" y="0px"
	 viewBox="0 0 1008 513.29" style="enable-background:new 0 0 1008 513.29;" xml:space="preserve">
<g>
	<path d="M60.73,221.71H36.26v-0.3c4.98-7.71,6.04-12.08,6.04-22.36v-85.21l-20.09,0.61c-5.59,0.15-14.51,15.41-21,25.38L0,139.37
		l5.74-28.25H91.1l5.89,28.25l-1.2,0.45c-6.65-9.97-15.57-25.23-21.16-25.38l-19.94-0.61v85.21c0,10.43,1.06,14.65,6.04,22.36
		V221.71z"/>
	<path d="M137,221.41c4.83-7.71,6.04-12.08,6.04-22.36v-65.27c0-10.28-1.21-14.65-6.04-22.36v-0.3h24.47v0.3
		c-4.98,7.71-6.04,11.93-6.04,22.36v29.31h58.47v-29.31c0-10.28-1.06-14.65-6.04-22.36v-0.3h24.47v0.3
		c-4.83,7.71-6.04,11.93-6.04,22.36v65.27c0,10.43,1.21,14.65,6.04,22.36v0.3h-24.47v-0.3c4.98-7.71,6.04-12.08,6.04-22.36v-32.94
		h-58.47v32.94c0,10.43,1.06,14.65,6.04,22.36v0.3H137V221.41z"/>
	<path d="M352.12,221.71h-74.18v-0.3c3.92-7.56,5.89-12.54,5.89-20.85v-68.29c0-8.46-1.97-13.29-5.89-20.85v-0.3h66.63l5.89,24.18
		l-1.21,0.45c-7.55-8.91-15.56-20.85-21.15-21.15l-31.73-1.06v51.07h19.04c5.59,0,10.43-9.06,14.5-14.35h1.21v30.82h-1.21
		c-3.92-4.53-8.91-13.44-14.5-13.44h-19.04v51.66l32.94-1.05c10.87-0.46,19.94-11.79,28.25-24.03l1.21,0.45L352.12,221.71z"/>
	<path d="M509.05,223.98c-35.81,0-58.32-25.23-58.32-57.56c0-32.18,23.12-57.56,61.04-57.56c17.38,0,30.82,4.38,38.68,7.25
		l3.02,22.96l-1.21,0.45c-11.03-19.34-22.66-27.65-41.85-27.65c-30.98,0-45.48,24.02-45.48,54.69c0,30.51,12.54,54.39,44.11,54.39
		c19.64,0,33.69-8.16,33.69-24.03c0-13.29-1.51-18.58-6.95-25.08v-0.3h24.63v0.3c-4.98,6.95-6.04,11.79-6.04,23.72v12.39
		C547.13,212.95,533.53,223.98,509.05,223.98"/>
	<path d="M599.98,166.57c0-32.33,25.99-57.71,55.9-57.71c30.07,0,56.21,25.38,56.21,57.71c0,32.33-26.14,57.41-56.21,57.41
		C625.97,223.98,599.98,198.9,599.98,166.57 M697.89,166.57c0-31.12-14.8-54.69-42-54.69c-27.05,0-41.7,23.57-41.7,54.69
		c0,31.12,14.65,54.39,41.7,54.39C683.08,220.96,697.89,197.84,697.89,166.57"/>
	<path d="M752.85,166.57c0-32.33,25.99-57.71,55.9-57.71c30.07,0,56.21,25.38,56.21,57.71c0,32.33-26.14,57.41-56.21,57.41
		C778.84,223.98,752.85,198.9,752.85,166.57 M850.76,166.57c0-31.12-14.8-54.69-42-54.69c-27.05,0-41.7,23.57-41.7,54.69
		c0,31.12,14.65,54.39,41.7,54.39C835.95,220.96,850.76,197.84,850.76,166.57"/>
	<path d="M908.14,221.41c4.83-7.71,6.04-12.09,6.04-22.36v-65.27c0-10.28-1.21-14.65-6.04-22.36v-0.3c19.49,0,21.6-0.61,41.85-0.61
		c34.9,0,55.9,19.64,55.9,55.45c0,35.81-20.69,55.75-57.41,55.75h-40.34V221.41z M926.57,113.38V219l20.55-0.3
		c32.18-0.46,44.57-17.68,44.57-50.62c0-37.32-14.51-54.39-43.06-54.54L926.57,113.38z"/>
	<path d="M5.44,402.17v-0.3c4.83-7.71,6.04-12.09,6.04-22.36v-65.27c0-10.28-1.21-14.65-6.04-22.36v-0.3
		c23.57,0,25.99-0.61,37.01-0.61c31.73-0.15,37.02,14.51,37.02,25.68c0,12.39-6.5,22.97-20.25,27.05
		c18.73,2.42,25.68,14.8,25.68,27.8c0,17.68-12.69,30.67-42.15,30.67H5.44z M45.77,343.1c16.17,0,21.6-13.3,21.6-25.53
		c0-15.41-9.22-23.57-26.44-23.57c-6.65,0-12.39,0.45-17.07,1.06v48.04H45.77z M71.46,372.11c0-15.26-7.85-25.99-24.32-25.99H23.87
		v51.67c4.83,0.76,11.03,1.36,17.67,1.36C62.09,399.15,71.46,388.42,71.46,372.11"/>
	<path d="M195.17,402.17h-74.18v-0.3c3.92-7.56,5.89-12.54,5.89-20.85v-68.29c0-8.46-1.97-13.29-5.89-20.85v-0.3h66.63l5.89,24.18
		l-1.21,0.45c-7.55-8.91-15.56-20.85-21.15-21.15l-31.73-1.06v51.07h19.04c5.59,0,10.43-9.07,14.5-14.35h1.21v30.82h-1.21
		c-3.92-4.53-8.91-13.44-14.5-13.44h-19.04v51.66l32.94-1.05c10.87-0.45,19.94-11.79,28.25-24.02l1.21,0.45L195.17,402.17z"/>
	<path d="M292.14,404.44c-35.81,0-58.32-25.23-58.32-57.56c0-32.18,23.12-57.56,61.04-57.56c17.38,0,30.83,4.38,38.68,7.25
		l3.02,22.96l-1.2,0.45c-11.03-19.34-22.66-27.65-41.85-27.65c-30.98,0-45.48,24.02-45.48,54.69c0,30.51,12.54,54.39,44.12,54.39
		c19.64,0,33.69-8.16,33.69-24.03c0-13.29-1.51-18.58-6.95-25.08v-0.3h24.62v0.3c-4.98,6.95-6.04,11.79-6.04,23.72v12.39
		C330.21,393.41,316.62,404.44,292.14,404.44"/>
	<path d="M379,401.87c4.98-7.71,6.04-12.08,6.04-22.36v-65.27c0-10.28-1.06-14.65-6.04-22.36v-0.3h24.47v0.3
		c-4.98,7.71-6.04,11.93-6.04,22.36v65.27c0,10.43,1.06,14.65,6.04,22.36v0.3H379V401.87z"/>
	<path d="M452.1,306.84l0.6,70.26c0,11.33,1.96,16.01,10.57,24.77v0.3h-22.36v-0.3c6.8-8.76,8.31-13.45,8.31-24.77v-68.75
		c-2.12-7.56-5.6-12.08-11.94-16.47v-0.3h18.29l70.4,91.56l-0.45-66.48c-0.15-11.33-1.81-16.01-9.21-24.77v-0.3h20.85v0.3
		c-6.79,8.76-8.31,13.45-8.31,24.77v85.52l-3.17,0.45L452.1,306.84z"/>
	<path d="M583.22,306.84l0.6,70.26c0,11.33,1.96,16.01,10.57,24.77v0.3h-22.36v-0.3c6.8-8.76,8.31-13.45,8.31-24.77v-68.75
		c-2.12-7.56-5.59-12.08-11.94-16.47v-0.3h18.29l70.4,91.56l-0.45-66.48c-0.15-11.33-1.81-16.01-9.22-24.77v-0.3h20.85v0.3
		c-6.79,8.76-8.31,13.45-8.31,24.77v85.52l-3.17,0.45L583.22,306.84z"/>
	<path d="M705.42,401.87c4.98-7.71,6.04-12.08,6.04-22.36v-65.27c0-10.28-1.06-14.65-6.04-22.36v-0.3h24.47v0.3
		c-4.98,7.71-6.04,11.93-6.04,22.36v65.27c0,10.43,1.06,14.65,6.04,22.36v0.3h-24.47V401.87z"/>
	<path d="M778.53,306.84l0.61,70.26c0,11.33,1.96,16.01,10.57,24.77v0.3h-22.36v-0.3c6.8-8.76,8.31-13.45,8.31-24.77v-68.75
		c-2.12-7.56-5.6-12.08-11.94-16.47v-0.3H782l70.4,91.56l-0.45-66.48c-0.15-11.33-1.81-16.01-9.21-24.77v-0.3h20.85v0.3
		c-6.79,8.76-8.31,13.45-8.31,24.77v85.52l-3.17,0.45L778.53,306.84z"/>
	<path d="M956.63,404.44c-35.81,0-58.32-25.23-58.32-57.56c0-32.18,23.12-57.56,61.04-57.56c17.38,0,30.82,4.38,38.68,7.25
		l3.02,22.96l-1.2,0.45c-11.03-19.34-22.66-27.65-41.85-27.65c-30.98,0-45.48,24.02-45.48,54.69c0,30.51,12.54,54.39,44.12,54.39
		c19.64,0,33.69-8.16,33.69-24.03c0-13.29-1.51-18.58-6.95-25.08v-0.3H1008v0.3c-4.98,6.95-6.04,11.79-6.04,23.72v12.39
		C994.7,393.41,981.11,404.44,956.63,404.44"/>
	<rect x="2.47" width="1003.06" height="6.74"/>
	<rect x="2.47" y="506.55" width="1003.06" height="6.74"/>
</g>
</svg>
